title,description,start_date_time,end_date_time,categories,color,status,venue,phone,fax,email,address,url_key,meta_title,meta_keywords,meta_description
SafeCheckô Advanced Food Safety Certification,"<h3>Calgary</h3>
<p>The SafeCheck&trade; Advanced AB Food Safety Certification Seminar is equivalent to FoodSafe I and II, ServSafe Manager Level, and ADVANCED FST. By having a shorter lunch break and limiting coffee breaks to 10 minutes, we are able to complete the seminar in one day. This classroom based seminar is an effective way to gain Food Safety Certification in a timely manner. This course is the equivalent to the Alberta Health Services Food Safety certification training. SafeCheck&trade; Advanced AB Food Safety Certification is a recognized training course in Food Sanitation and Hygiene by the Minster of Health under Section 31 of the Alberta Public Health Act Food Regulation.</p>",2017-02-25 8:15,2017-02-25 17:00,"1,2",#FFA50A,Enable,Canadian Food Safety Education Centre,866.258.0643,8882238551,training@canadianfoodsafety.com,"Unit 70 5251 48 Ave SE Calgary, AB T2B 3S2",February-25-2017, , , 
